[{"id":1,"first_name":"Konstanze","last_name":"Fishe","email":"kfishe0@mac.com","gender":"Female"},
{"id":2,"first_name":"Kamillah","last_name":"Lesaunier","email":"klesaunier1@home.pl","gender":"Female"},
{"id":3,"first_name":"Archer","last_name":"Sunley","email":"asunley2@cnet.com","gender":"Male"},
{"id":4,"first_name":"Cassie","last_name":"Yokel","email":"cyokel3@geocities.com","gender":"Male"},
{"id":5,"first_name":"Eldridge","last_name":"Germon","email":"egermon4@dropbox.com","gender":"Male"},
{"id":6,"first_name":"Mark","last_name":"Higginbottam","email":"mhigginbottam5@indiegogo.com","gender":"Male"},
{"id":7,"first_name":"Dot","last_name":"Crang","email":"dcrang6@unc.edu","gender":"Female"},
{"id":8,"first_name":"Gusta","last_name":"Tommei","email":"gtommei7@prweb.com","gender":"Female"},
{"id":9,"first_name":"Brendan","last_name":"Bruinemann","email":"bbruinemann8@diigo.com","gender":"Male"},
{"id":10,"first_name":"Cam","last_name":"Aubray","email":"caubray9@blinklist.com","gender":"Female"},
{"id":11,"first_name":"Urbain","last_name":"Jamrowicz","email":"ujamrowicza@who.int","gender":"Male"},
{"id":12,"first_name":"Sandye","last_name":"Readings","email":"sreadingsb@china.com.cn","gender":"Female"},
{"id":13,"first_name":"Ginger","last_name":"Billham","email":"gbillhamc@xinhuanet.com","gender":"Female"},
{"id":14,"first_name":"Lon","last_name":"Pott","email":"lpottd@ucsd.edu","gender":"Male"},
{"id":15,"first_name":"Gilburt","last_name":"Overbury","email":"goverburye@jugem.jp","gender":"Male"},
{"id":16,"first_name":"Bernhard","last_name":"Baxill","email":"bbaxillf@barnesandnoble.com","gender":"Male"},
{"id":17,"first_name":"Nolan","last_name":"Tellenbach","email":"ntellenbachg@nasa.gov","gender":"Male"},
{"id":18,"first_name":"Jaimie","last_name":"Lowis","email":"jlowish@is.gd","gender":"Male"},
{"id":19,"first_name":"Zelma","last_name":"Bullimore","email":"zbullimorei@google.com.hk","gender":"Female"},
{"id":20,"first_name":"Hugh","last_name":"Dowdeswell","email":"hdowdeswellj@newyorker.com","gender":"Male"},
{"id":21,"first_name":"Merle","last_name":"Murrison","email":"mmurrisonk@tinyurl.com","gender":"Female"},
{"id":22,"first_name":"Annadiana","last_name":"Copnar","email":"acopnarl@taobao.com","gender":"Female"},
{"id":23,"first_name":"Timothea","last_name":"Spaight","email":"tspaightm@google.com.hk","gender":"Female"},
{"id":24,"first_name":"Misty","last_name":"Sparwell","email":"msparwelln@newsvine.com","gender":"Female"},
{"id":25,"first_name":"Clo","last_name":"Bandiera","email":"cbandierao@cnet.com","gender":"Female"},
{"id":26,"first_name":"Lorilyn","last_name":"Samuels","email":"lsamuelsp@slashdot.org","gender":"Female"},
{"id":27,"first_name":"Belita","last_name":"Zupone","email":"bzuponeq@weibo.com","gender":"Female"},
{"id":28,"first_name":"Bliss","last_name":"Fadden","email":"bfaddenr@yellowbook.com","gender":"Female"},
{"id":29,"first_name":"Hillier","last_name":"Stilling","email":"hstillings@cbc.ca","gender":"Male"},
{"id":30,"first_name":"Weider","last_name":"Hurst","email":"whurstt@soundcloud.com","gender":"Male"},
{"id":31,"first_name":"Raoul","last_name":"Folkes","email":"rfolkesu@msn.com","gender":"Male"},
{"id":32,"first_name":"Tailor","last_name":"Chomicz","email":"tchomiczv@deliciousdays.com","gender":"Male"},
{"id":33,"first_name":"Wit","last_name":"Pardue","email":"wparduew@elpais.com","gender":"Male"},
{"id":34,"first_name":"Ike","last_name":"Illston","email":"iillstonx@over-blog.com","gender":"Male"},
{"id":35,"first_name":"Maximilien","last_name":"Bellay","email":"mbellayy@prweb.com","gender":"Male"},
{"id":36,"first_name":"Stacee","last_name":"Hugett","email":"shugettz@networkadvertising.org","gender":"Male"},
{"id":37,"first_name":"Luca","last_name":"Makey","email":"lmakey10@wordpress.com","gender":"Male"},
{"id":38,"first_name":"Clair","last_name":"Hazelton","email":"chazelton11@instagram.com","gender":"Female"},
{"id":39,"first_name":"Cobb","last_name":"Reaper","email":"creaper12@imageshack.us","gender":"Male"},
{"id":40,"first_name":"Amata","last_name":"Juszczak","email":"ajuszczak13@harvard.edu","gender":"Female"},
{"id":41,"first_name":"Debee","last_name":"Windridge","email":"dwindridge14@nih.gov","gender":"Female"},
{"id":42,"first_name":"Nerita","last_name":"Pidgeley","email":"npidgeley15@nba.com","gender":"Female"},
{"id":43,"first_name":"Randall","last_name":"Kampshell","email":"rkampshell16@nih.gov","gender":"Male"},
{"id":44,"first_name":"Morgun","last_name":"Tinmouth","email":"mtinmouth17@npr.org","gender":"Male"},
{"id":45,"first_name":"Kylie","last_name":"Episcopio","email":"kepiscopio18@buzzfeed.com","gender":"Female"},
{"id":46,"first_name":"Raymond","last_name":"Bootton","email":"rbootton19@istockphoto.com","gender":"Male"},
{"id":47,"first_name":"Derek","last_name":"Conroy","email":"dconroy1a@wisc.edu","gender":"Male"},
{"id":48,"first_name":"Danya","last_name":"Tynan","email":"dtynan1b@fastcompany.com","gender":"Male"},
{"id":49,"first_name":"Nanci","last_name":"Dimberline","email":"ndimberline1c@dell.com","gender":"Female"},
{"id":50,"first_name":"Archibold","last_name":"Ratter","email":"aratter1d@linkedin.com","gender":"Male"},
{"id":51,"first_name":"Reid","last_name":"Hendrikse","email":"rhendrikse1e@opera.com","gender":"Male"},
{"id":52,"first_name":"Gilly","last_name":"Mealham","email":"gmealham1f@npr.org","gender":"Female"},
{"id":53,"first_name":"Jorge","last_name":"Titterell","email":"jtitterell1g@ucoz.com","gender":"Male"},
{"id":54,"first_name":"Marcella","last_name":"Rochewell","email":"mrochewell1h@sfgate.com","gender":"Female"},
{"id":55,"first_name":"Dorey","last_name":"Duckit","email":"dduckit1i@indiegogo.com","gender":"Male"},
{"id":56,"first_name":"Milton","last_name":"Wrennall","email":"mwrennall1j@privacy.gov.au","gender":"Male"},
{"id":57,"first_name":"Rhett","last_name":"Sandever","email":"rsandever1k@noaa.gov","gender":"Male"},
{"id":58,"first_name":"Farleigh","last_name":"Standing","email":"fstanding1l@mysql.com","gender":"Male"},
{"id":59,"first_name":"Ardith","last_name":"Krishtopaittis","email":"akrishtopaittis1m@is.gd","gender":"Female"},
{"id":60,"first_name":"Son","last_name":"Gammade","email":"sgammade1n@cnn.com","gender":"Male"},
{"id":61,"first_name":"Quincey","last_name":"Selvey","email":"qselvey1o@360.cn","gender":"Male"},
{"id":62,"first_name":"Foster","last_name":"Kelwaybamber","email":"fkelwaybamber1p@wordpress.com","gender":"Male"},
{"id":63,"first_name":"Jeana","last_name":"Campsall","email":"jcampsall1q@jimdo.com","gender":"Female"},
{"id":64,"first_name":"Izak","last_name":"Huckster","email":"ihuckster1r@blogspot.com","gender":"Male"},
{"id":65,"first_name":"Keelby","last_name":"Tribell","email":"ktribell1s@hud.gov","gender":"Male"},
{"id":66,"first_name":"Dyana","last_name":"Pallent","email":"dpallent1t@godaddy.com","gender":"Female"},
{"id":67,"first_name":"Carly","last_name":"Clemitt","email":"cclemitt1u@slashdot.org","gender":"Male"},
{"id":68,"first_name":"Rachael","last_name":"Matskevich","email":"rmatskevich1v@businessinsider.com","gender":"Female"},
{"id":69,"first_name":"Ellary","last_name":"Braune","email":"ebraune1w@google.pl","gender":"Male"},
{"id":70,"first_name":"Stephan","last_name":"Dudny","email":"sdudny1x@senate.gov","gender":"Male"},
{"id":71,"first_name":"Berta","last_name":"Cowins","email":"bcowins1y@sciencedirect.com","gender":"Female"},
{"id":72,"first_name":"Brett","last_name":"Molineaux","email":"bmolineaux1z@eepurl.com","gender":"Male"},
{"id":73,"first_name":"Jami","last_name":"Kleis","email":"jkleis20@cdbaby.com","gender":"Female"},
{"id":74,"first_name":"Bevan","last_name":"Waddingham","email":"bwaddingham21@fotki.com","gender":"Male"},
{"id":75,"first_name":"Tommy","last_name":"Mallall","email":"tmallall22@mozilla.com","gender":"Female"},
{"id":76,"first_name":"Mylo","last_name":"Pughe","email":"mpughe23@yahoo.com","gender":"Male"},
{"id":77,"first_name":"Estrellita","last_name":"Trainor","email":"etrainor24@sfgate.com","gender":"Female"},
{"id":78,"first_name":"Forrest","last_name":"McKeowon","email":"fmckeowon25@google.cn","gender":"Male"},
{"id":79,"first_name":"Sibyl","last_name":"Sidnall","email":"ssidnall26@upenn.edu","gender":"Female"},
{"id":80,"first_name":"Teodorico","last_name":"Duddell","email":"tduddell27@spiegel.de","gender":"Male"},
{"id":81,"first_name":"Lalo","last_name":"Lefwich","email":"llefwich28@wsj.com","gender":"Male"},
{"id":82,"first_name":"Karoline","last_name":"Tallowin","email":"ktallowin29@go.com","gender":"Female"},
{"id":83,"first_name":"Leonardo","last_name":"Klimecki","email":"lklimecki2a@arizona.edu","gender":"Male"},
{"id":84,"first_name":"Ambrosius","last_name":"Colman","email":"acolman2b@domainmarket.com","gender":"Male"},
{"id":85,"first_name":"Eudora","last_name":"Tompkin","email":"etompkin2c@upenn.edu","gender":"Female"},
{"id":86,"first_name":"Berni","last_name":"Delamaine","email":"bdelamaine2d@linkedin.com","gender":"Female"},
{"id":87,"first_name":"Beau","last_name":"Bodleigh","email":"bbodleigh2e@digg.com","gender":"Male"},
{"id":88,"first_name":"Rice","last_name":"Wildgoose","email":"rwildgoose2f@yahoo.com","gender":"Male"},
{"id":89,"first_name":"Anna-maria","last_name":"Adamczewski","email":"aadamczewski2g@ucoz.com","gender":"Female"},
{"id":90,"first_name":"Earl","last_name":"Muller","email":"emuller2h@merriam-webster.com","gender":"Male"},
{"id":91,"first_name":"Talia","last_name":"Atcheson","email":"tatcheson2i@amazon.com","gender":"Female"},
{"id":92,"first_name":"Winfield","last_name":"Josovich","email":"wjosovich2j@bigcartel.com","gender":"Male"},
{"id":93,"first_name":"Estevan","last_name":"Jakovijevic","email":"ejakovijevic2k@pbs.org","gender":"Male"},
{"id":94,"first_name":"Toni","last_name":"Monard","email":"tmonard2l@netvibes.com","gender":"Female"},
{"id":95,"first_name":"Mickie","last_name":"Heephy","email":"mheephy2m@weebly.com","gender":"Male"},
{"id":96,"first_name":"Larine","last_name":"Olliff","email":"lolliff2n@accuweather.com","gender":"Female"},
{"id":97,"first_name":"Franciska","last_name":"O'Keevan","email":"fokeevan2o@wiley.com","gender":"Female"},
{"id":98,"first_name":"Roxana","last_name":"Cutbush","email":"rcutbush2p@usnews.com","gender":"Female"},
{"id":99,"first_name":"Fina","last_name":"Cattermole","email":"fcattermole2q@discuz.net","gender":"Female"},
{"id":100,"first_name":"Georgeta","last_name":"Krishtopaittis","email":"gkrishtopaittis2r@google.co.jp","gender":"Female"}]